Labour Market in Colombia
…
Merging Dataframes

# Now we merge both dataframes: total country and 13 cities and metropolitan areas labour market indices by (año and mes)

data = df1 |> 
  dplyr::inner_join(df2,
                    by = c("Año", "Mes"),
                    suffix = c(".TN", ".13 A.M"))

data

# A tibble: 292 × 8
   Año   Mes   `Tasa Global de Participación (TGP).TN` Tasa de Ocupación (TO).…¹
   <chr> <chr> <chr>                                   <chr>                    
 1 2001  Ene   68.973109335930133                      59.101177056750885       
 2 2001  Feb   68.886306277192389                      57.820509345089057       
 3 2001  Mar   68.612689318468114                      57.268868184967694       
 4 2001  Abr   65.352141192242001                      56.424365278839275       
 5 2001  May   65.890077159012904                      56.173420547883879       
 6 2001  Jun   67.387834923754298                      57.250971354256016       
 7 2001  Jul   67.058138305688757                      56.896456850414367       
 8 2001  Ago   67.693387044713404                      57.659423235928777       
 9 2001  Sep   68.307952145164052                      58.21154729985323        
10 2001  Oct   67.53053221447675                       57.311158091176971       
# ℹ 282 more rows
# ℹ abbreviated name: ¹​`Tasa de Ocupación (TO).TN`
# ℹ 4 more variables: `Tasa de Desocupación (TD).TN` <chr>,
#   `Tasa Global de Participación (TGP).13 A.M` <chr>,
#   `Tasa de Ocupación (TO).13 A.M` <chr>,
#   `Tasa de Desocupación (TD).13 A.M` <chr>
…
Unemployment

Now we filter the data for unemployment and then present the data in the long or stacked format:

unemp = data |>
  dplyr::select(Año, Mes,
                `Tasa de Desocupación (TD).TN`,
                `Tasa de Desocupación (TD).13 A.M`) |>
  tidyr::pivot_longer(cols = 3:4,
                      names_to = "TD",
                      values_to = "value")  

unemp

# A tibble: 152 × 4
     Año   Mes TD                               value
   <dbl> <dbl> <chr>                            <dbl>
 1  2019     1 Tasa de Desocupación (TD).TN      10.7
 2  2019     1 Tasa de Desocupación (TD).13 A.M  11.5
 3  2019     2 Tasa de Desocupación (TD).TN      10.8
 4  2019     2 Tasa de Desocupación (TD).13 A.M  11.9
 5  2019     3 Tasa de Desocupación (TD).TN      10.9
 6  2019     3 Tasa de Desocupación (TD).13 A.M  12.0
 7  2019     4 Tasa de Desocupación (TD).TN      10.8
 8  2019     4 Tasa de Desocupación (TD).13 A.M  11.4
 9  2019     5 Tasa de Desocupación (TD).TN      10.8
10  2019     5 Tasa de Desocupación (TD).13 A.M  12.0
# ℹ 142 more rows
…
Employment

Now we filter the data for employment and then present the data in the long or stacked format:

emp = data |>
  dplyr::select(Año, Mes,
                `Tasa de Ocupación (TO).TN`,
                `Tasa de Ocupación (TO).13 A.M`) |>
  tidyr::pivot_longer(cols = 3:4,
                      names_to = "TO",
                      values_to = "value")  

emp

# A tibble: 152 × 4
     Año   Mes TO                            value
   <dbl> <dbl> <chr>                         <dbl>
 1  2019     1 Tasa de Ocupación (TO).TN      58.4
 2  2019     1 Tasa de Ocupación (TO).13 A.M  58.9
 3  2019     2 Tasa de Ocupación (TO).TN      58.5
 4  2019     2 Tasa de Ocupación (TO).13 A.M  58.6
 5  2019     3 Tasa de Ocupación (TO).TN      58.3
 6  2019     3 Tasa de Ocupación (TO).13 A.M  58.9
 7  2019     4 Tasa de Ocupación (TO).TN      57.1
 8  2019     4 Tasa de Ocupación (TO).13 A.M  58.8
 9  2019     5 Tasa de Ocupación (TO).TN      57.8
10  2019     5 Tasa de Ocupación (TO).13 A.M  58.7
# ℹ 142 more rows
…
Labor Force Participation

Now we filter the data for labor force participation rate and then present the data in the long or stacked format:

lfp = data |>
  dplyr::select(Año, Mes,
                `Tasa Global de Participación (TGP).TN`,
                `Tasa Global de Participación (TGP).13 A.M` ) |>
  tidyr::pivot_longer(cols = 3:4,
                      names_to = "TGP",
                      values_to = "value")

lfp

# A tibble: 152 × 4
     Año   Mes TGP                                       value
   <dbl> <dbl> <chr>                                     <dbl>
 1  2019     1 Tasa Global de Participación (TGP).TN      65.4
 2  2019     1 Tasa Global de Participación (TGP).13 A.M  66.6
 3  2019     2 Tasa Global de Participación (TGP).TN      65.6
 4  2019     2 Tasa Global de Participación (TGP).13 A.M  66.5
 5  2019     3 Tasa Global de Participación (TGP).TN      65.4
 6  2019     3 Tasa Global de Participación (TGP).13 A.M  66.9
 7  2019     4 Tasa Global de Participación (TGP).TN      64.0
 8  2019     4 Tasa Global de Participación (TGP).13 A.M  66.3
 9  2019     5 Tasa Global de Participación (TGP).TN      64.8
10  2019     5 Tasa Global de Participación (TGP).13 A.M  66.6
# ℹ 142 more rows
…
